<svg id="Component_44_1" data-name="Component 44 – 1" xmlns="http://www.w3.org/2000/svg" width="14" height="14" viewBox="0 0 14 14">
  <g id="Component_42_1" data-name="Component 42 – 1">
    <rect id="Rectangle_2699" data-name="Rectangle 2699" width="14" height="14" fill="none"/>
  </g>
  <g id="eye_1_" data-name="eye(1)" transform="translate(1.92 3.047)">
    <path id="Path_3754" data-name="Path 3754" d="M9.841,5.516A5.6,5.6,0,0,0,5.073,2.655,5.6,5.6,0,0,0,.306,5.516a2.076,2.076,0,0,0,0,2.183A5.6,5.6,0,0,0,5.073,10.56,5.6,5.6,0,0,0,9.841,7.7,2.076,2.076,0,0,0,9.841,5.516ZM9.119,7.257A4.786,4.786,0,0,1,5.073,9.714,4.786,4.786,0,0,1,1.027,7.257a1.234,1.234,0,0,1,0-1.3A4.786,4.786,0,0,1,5.073,3.5,4.782,4.782,0,0,1,9.119,5.959,1.234,1.234,0,0,1,9.119,7.257Z" transform="translate(0.004 -2.655)" fill="#fff"/>
    <path id="Path_3755" data-name="Path 3755" d="M9.115,7A2.115,2.115,0,1,0,11.23,9.115,2.115,2.115,0,0,0,9.115,7Zm0,3.384a1.269,1.269,0,1,1,1.269-1.269A1.269,1.269,0,0,1,9.115,10.384Z" transform="translate(-4.037 -5.162)" fill="#fff"/>
  </g>
</svg>
